...............................
----------------------------------------------------------------------
Ran 31 tests in 0.299s

OK
Name             Stmts   Miss Branch BrPart  Cover   Missing
------------------------------------------------------------
Collatz.py          46      0     20      0   100%
TestCollatz.py     129      0      2      0   100%
------------------------------------------------------------
TOTAL              175      0     22      0   100%
