1 10 20
100 200 125
201 210 89
900 1000 174
12 23 21
999898 999823 259
574 321 144
5433 15443 276
4932 4432 210
1 1 1
32 12 112
123 345 144
332 443 134
9999 9999 92
101 101 26
320 321 25
199 200 120
2 1 2
384 324 144
48323 49492 296
100 333 144
334 399 126
3992 3993 52
1 99999 351
99999 1 351
843 483 171
48322 52332 309
12 90 116
58 39 113
293 493 144
5372 4932 197
4859 3843 215
48392 49921 296
83 12 116
85 393 144
493 583 137
9 10 20
1 90000 351
652581 653137 336
824003 823974 238
655077 655161 186
39 49 110
10 293 128
89 399 144
394 394 28
38489 38421 231
48328 48234 221
4932 4933 135
84839 83839 320
48392 49393 296
829 38332 324
3932 39392 324
393 394 59
6493 5762 262
58483 54930 322
9889 83849 351
42348 48383 314
49393 48832 296
43435 58434 340
947523 950576 383
4848 58392 340
483482 483482 95
999888 999887 259
10293 19294 279
488829 488800 320
48384 58383 340
68537 76354 325
5836 5747 205
573469 573457 147
474473 474553 245
83 584 144
58399 58382 242
593075 593475 328
4838 5858 236
9876 3456 262
45678 87687 351
584489 584483 297
999998 999998 259
1243 3234 217
434554 434154 338
777873 777783 194
674726 674926 230
745734 745134 349
583583 583353 266
495375 495675 289
573784 573943 328
847347 847484 419
743748 743758 287
894264 894464 295
758493 758483 362
584934 584134 359
667483 667443 323
574393 574393 178
354345 355345 379
345842 345832 273
489454 489324 214
674632 674843 248
462842 462583 307
673923 673534 292
882568 882759 251
977493 977573 321
935789 935789 109
