1 10 20
100 200 125
201 210 89
900 1000 174
1000 2000 182
2000 3000 217
5000 7500 262
1 10000 262
10000 25000 282
50000 99999 351
1 99999 351
1500 3000 217
1 100000 351
10000 20000 279
20000 30000 308
30000 40000 324
40000 50000 314
50000 60000 340
70000 80000 351
80000 90000 333
90000 99999 333
1 25000 282
25000 50000 324
50000 75000 340
75000 99999 351
1 50000 324
50000 99999 351
75 200 125
626 9989 262
1213 7892 262
1111 11111 268
2222 22222 279
3333 33333 308
4444 44444 324
5555 55555 340
6666 66666 340
7777 77777 351
8888 88888 351
9999 99999 351
77532 98756 338
12345 45678 324
99998 99999 227
1 5 8
456 789 171
8885 10000 260
7865 12000 268
56550 100000 351
9823 10000 242
23232 32323 308
78932 89653 333
6523 10000 260
88932 99999 333
78965 99999 333
33325 50000 324
55000 56000 260
56000 57000 322
58000 59000 273
59000 60000 304
60000 61000 335
61000 62000 317
62000 63000 286
63000 64000 330
64000 65000 299
65000 66000 268
66000 67000 268
67000 68000 312
68000 69000 312
69000 70000 299
10000 10100 224
10100 10200 180
10200 10300 242
10300 10400 224
10400 10500 255
10500 10600 193
10600 10700 255
10700 10800 193
10800 10900 206
10900 11000 268
99000 99100 328
99100 99200 297
99200 99300 266
99300 99400 160
99400 99500 204
99500 99600 235
99600 99700 266
99700 99800 328
99800 99900 235
99900 99999 227
40000 41000 288
41000 42000 257
42000 43000 288
43000 44000 270
44000 45000 270
45000 46000 314
46000 47000 283
47000 48000 314
48000 49000 296
49000 50000 296
75000 100000 351
76000 100000 351
77000 100000 351
78000 100000 338
79000 100000 333
80000 100000 333
81000 100000 333
82000 100000 333
83000 100000 333
84000 100000 333
85000 100000 333
86000 100000 333
87000 100000 333
88000 100000 333
89000 100000 333
90000 100000 333
